[
  {
    "path": "/",
    "heroSection": {
      "background": "https://images.unsplash.com/photo-1562322140-8baeececf3df?q=80&w=2069&auto=format&fit=crop&ixlib=rb-4.0.3&ixid=M3wxMjA3fDB8MHxwaG90by1wYWdlfHx8fGVufDB8fHx8fA%3D%3D",
      "title": "WELCOME TO REINE STUDIO",
      "subTitle": "BRING OUT YOUR INNER BEAUTY",
      "btn": {
        "title": "",
        "url": ""
      }
    },
    "bannerSection": {
      "background": "https://dsathemes.com/html/r_eine_1.1/files/images/bg-03.jpg",
      "subTitle": "THIS WEEK ONLY",
      "title": "Get <font style=\"font-size:110px;\"><b>30% OFF</b></font><br> Quick Face Makeup"
    }
  },
  {
    "path": "/services",
    "heroSection": {
      "background": "https://dsathemes.com/html/r_eine_1.1/files/images/pricing-1-page.jpg",
      "title": "Hair Services",
      "subTitle": "It’s time to give your hair some love",
      "btn": {
        "title": "",
        "url": ""
      }
    },
    "serviceRates": [
      {
        "heading": "Cutting & Styling",
        "priceList": [
          {
            "title": "Women's Haircut",
            "subTitle": null,
            "price": "$68 - $153"
          },
          {
            "title": "Men's Haircut",
            "subTitle": null,
            "price": "$45 - $92"
          },
          {
            "title": "Blow Dry",
            "subTitle": null,
            "price": "From $44"
          },
          {
            "title": "Updo/Style",
            "subTitle": "(shampoo not included)",
            "price": "$75 - $164"
          },
          {
            "title": "Child’s Haircut",
            "subTitle": "(12 years old + under)",
            "price": "$32 - $68"
          }
        ]
      },
      {
        "heading": "Hair Coloring",
        "priceList": [
          {
            "title": "Single Process",
            "subTitle": "(Glass not included)",
            "price": "$130 - $195"
          },
          {
            "title": "Double Process",
            "subTitle": null,
            "price": "$290 - $375"
          },
          {
            "title": "Full Head Highlights",
            "subTitle": null,
            "price": "$345 - $380"
          },
          {
            "title": "Half Head Highlights",
            "subTitle": null,
            "price": "$260 - $290"
          },
          {
            "title": "Balayage",
            "subTitle": null,
            "price": "$85 - $220"
          },
          {
            "title": "Color Refresh",
            "subTitle": null,
            "price": "$95 - $130"
          }
        ]
      },
      {
        "heading": "Hair Treatments",
        "priceList": [
          {
            "title": "Brazilian Blow Out",
            "subTitle": null,
            "price": "$180 - $255"
          },
          {
            "title": "Keratin Complex Express",
            "subTitle": "(Service length 60 minutes)",
            "price": "$210"
          },
          {
            "title": "Keratin Complex",
            "subTitle": null,
            "price": "$280 - $420"
          },
          {
            "title": "Keratin Complex Max",
            "subTitle": "(Includes KC MAX Treatment Spray)",
            "price": "$350 - $495"
          },
          {
            "title": "Permanent Wave",
            "subTitle": null,
            "price": "$185 - $240"
          },
          {
            "title": "Hair Gloss",
            "subTitle": null,
            "price": "$40 - $55"
          },
          {
            "title": "Safe Color Treatment",
            "subTitle": null,
            "price": "$35 - $95"
          },
          {
            "title": "Hair & Scalp Treatments",
            "subTitle": null,
            "price": "$45 - $240"
          }
        ]
      },
      {
        "heading": "Hair Extensions",
        "priceList": [
          {
            "title": "Blowdry with Extensions",
            "subTitle": null,
            "price": "$65 - $95"
          },
          {
            "title": "Extensions Service",
            "subTitle": null,
            "price": "$110 per hour"
          },
          {
            "title": "Keratin Hair Extensions",
            "subTitle": null,
            "price": "$720 - $860"
          },
          {
            "title": "Hair Extension Removal",
            "subTitle": null,
            "price": "$85 - $275"
          }
        ]
      }
    ],
    "bannerSection": {
      "background": "https://dsathemes.com/html/r_eine_1.1/files/images/bg-03.jpg",
      "subTitle": "THIS WEEK ONLY",
      "title": "Get <font style=\"font-size:110px;\"><b>30% OFF</b></font><br> Quick Face Makeup"
    }
  }
]